<?xml version="1.0" encoding="UTF-8"?>
<testsuite xmlns:xsi="http://www.w3.org/2001/XMLSchema-instance" xsi:schemaLocation="https://maven.apache.org/surefire/maven-surefire-plugin/xsd/surefire-test-report.xsd" name="BlackjackTest" time="0.219" tests="506" errors="0" skipped="0" failures="0">
  <properties>
    <property name="java.runtime.name" value="Java(TM) SE Runtime Environment"/>
    <property name="sun.boot.library.path" value="C:\Program Files\Java\jdk1.8.0_181\jre\bin"/>
    <property name="java.vm.version" value="25.181-b13"/>
    <property name="java.vm.vendor" value="Oracle Corporation"/>
    <property name="maven.multiModuleProjectDirectory" value="C:/Users/mikel/JUnitMavenInl"/>
    <property name="java.vendor.url" value="http://java.oracle.com/"/>
    <property name="path.separator" value=";"/>
    <property name="guice.disable.misplaced.annotation.check" value="true"/>
    <property name="java.vm.name" value="Java HotSpot(TM) 64-Bit Server VM"/>
    <property name="file.encoding.pkg" value="sun.io"/>
    <property name="user.script" value=""/>
    <property name="user.country" value="SE"/>
    <property name="sun.java.launcher" value="SUN_STANDARD"/>
    <property name="sun.os.patch.level" value=""/>
    <property name="java.vm.specification.name" value="Java Virtual Machine Specification"/>
    <property name="user.dir" value="C:\Users\mikel\JUnitMavenInl"/>
    <property name="java.runtime.version" value="1.8.0_181-b13"/>
    <property name="java.awt.graphicsenv" value="sun.awt.Win32GraphicsEnvironment"/>
    <property name="java.endorsed.dirs" value="C:\Program Files\Java\jdk1.8.0_181\jre\lib\endorsed"/>
    <property name="os.arch" value="amd64"/>
    <property name="java.io.tmpdir" value="C:\Users\mikel\AppData\Local\Temp\"/>
    <property name="line.separator" value="&#10;"/>
    <property name="java.vm.specification.vendor" value="Oracle Corporation"/>
    <property name="user.variant" value=""/>
    <property name="os.name" value="Windows 10"/>
    <property name="classworlds.conf" value="C:/Program Files/apache-maven-3.6.0/bin/m2.conf"/>
    <property name="sun.jnu.encoding" value="Cp1252"/>
    <property name="java.library.path" value="C:\Program Files\Java\jdk1.8.0_181\bin;C:\Windows\Sun\Java\bin;C:\Windows\system32;C:\Windows;C:\Users\mikel\bin;C:\Program Files\Git\mingw64\bin;C:\Program Files\Git\usr\local\bin;C:\Program Files\Git\usr\bin;C:\Program Files\Git\usr\bin;C:\Program Files\Git\mingw64\bin;C:\Program Files\Git\usr\bin;C:\Users\mikel\bin;C:\Program Files (x86)\Common Files\Oracle\Java\javapath;C:\Program Files (x86)\Intel\Intel(R) Management Engine Components\iCLS;C:\Program Files\Intel\Intel(R) Management Engine Components\iCLS;C:\Windows\system32;C:\Windows;C:\Windows\System32\Wbem;C:\Windows\System32\WindowsPowerShell\v1.0;C:\Windows\System32\OpenSSH;C:\Program Files (x86)\Intel\Intel(R) Management Engine Components\DAL;C:\Program Files\Intel\Intel(R) Management Engine Components\DAL;C:\Program Files (x86)\Intel\Intel(R) Management Engine Components\IPT;C:\Program Files\Intel\Intel(R) Management Engine Components\IPT;C:\Program Files (x86)\NVIDIA Corporation\PhysX\Common;C:\Program Files\Git\cmd;C:\Program Files\Java\jdk1.8.0_181\bin;C:\Program Files\apache-maven-3.6.0\bin;C:\Users\mikel\AppData\Local\Microsoft\WindowsApps;C:\Program Files\Git\usr\bin\vendor_perl;C:\Program Files\Git\usr\bin\core_perl;."/>
    <property name="maven.conf" value="C:/Program Files/apache-maven-3.6.0/conf"/>
    <property name="java.specification.name" value="Java Platform API Specification"/>
    <property name="java.class.version" value="52.0"/>
    <property name="sun.management.compiler" value="HotSpot 64-Bit Tiered Compilers"/>
    <property name="os.version" value="10.0"/>
    <property name="library.jansi.path" value="C:/Program Files/apache-maven-3.6.0/lib/jansi-native"/>
    <property name="user.home" value="C:\Users\mikel"/>
    <property name="user.timezone" value="Europe/Berlin"/>
    <property name="java.awt.printerjob" value="sun.awt.windows.WPrinterJob"/>
    <property name="java.specification.version" value="1.8"/>
    <property name="file.encoding" value="Cp1252"/>
    <property name="user.name" value="mikel"/>
    <property name="java.class.path" value="C:/Program Files/apache-maven-3.6.0/boot/plexus-classworlds-2.5.2.jar"/>
    <property name="java.vm.specification.version" value="1.8"/>
    <property name="sun.arch.data.model" value="64"/>
    <property name="java.home" value="C:\Program Files\Java\jdk1.8.0_181\jre"/>
    <property name="sun.java.command" value="org.codehaus.plexus.classworlds.launcher.Launcher test"/>
    <property name="java.specification.vendor" value="Oracle Corporation"/>
    <property name="user.language" value="sv"/>
    <property name="awt.toolkit" value="sun.awt.windows.WToolkit"/>
    <property name="java.vm.info" value="mixed mode"/>
    <property name="java.version" value="1.8.0_181"/>
    <property name="java.ext.dirs" value="C:\Program Files\Java\jdk1.8.0_181\jre\lib\ext;C:\Windows\Sun\Java\lib\ext"/>
    <property name="sun.boot.class.path" value="C:\Program Files\Java\jdk1.8.0_181\jre\lib\resources.jar;C:\Program Files\Java\jdk1.8.0_181\jre\lib\rt.jar;C:\Program Files\Java\jdk1.8.0_181\jre\lib\sunrsasign.jar;C:\Program Files\Java\jdk1.8.0_181\jre\lib\jsse.jar;C:\Program Files\Java\jdk1.8.0_181\jre\lib\jce.jar;C:\Program Files\Java\jdk1.8.0_181\jre\lib\charsets.jar;C:\Program Files\Java\jdk1.8.0_181\jre\lib\jfr.jar;C:\Program Files\Java\jdk1.8.0_181\jre\classes"/>
    <property name="java.vendor" value="Oracle Corporation"/>
    <property name="maven.home" value="C:\Program Files\apache-maven-3.6.0"/>
    <property name="file.separator" value="\"/>
    <property name="java.vendor.url.bug" value="http://bugreport.sun.com/bugreport/"/>
    <property name="sun.cpu.endian" value="little"/>
    <property name="sun.io.unicode.encoding" value="UnicodeLittle"/>
    <property name="sun.desktop" value="windows"/>
    <property name="sun.cpu.isalist" value="amd64"/>
  </properties>
  <testcase name="testScore" classname="BlackjackTest" time="0.006"/>
  <testcase name="testDraw" classname="testDraw()" time="0.001"/>
  <testcase name="testDraw" classname="testDraw()" time="0.001"/>
  <testcase name="testDraw" classname="testDraw()" time="0.001"/>
  <testcase name="testDraw" classname="testDraw()" time="0"/>
  <testcase name="testDraw" classname="testDraw()" time="0"/>
  <testcase name="testDraw" classname="testDraw()" time="0.001"/>
  <testcase name="testDraw" classname="testDraw()" time="0"/>
  <testcase name="testDraw" classname="testDraw()" time="0"/>
  <testcase name="testDraw" classname="testDraw()" time="0"/>
  <testcase name="testDraw" classname="testDraw()" time="0"/>
  <testcase name="testDraw" classname="testDraw()" time="0.001"/>
  <testcase name="testDraw" classname="testDraw()" time="0"/>
  <testcase name="testDraw" classname="testDraw()" time="0"/>
  <testcase name="testDraw" classname="testDraw()" time="0"/>
  <testcase name="testDraw" classname="testDraw()" time="0"/>
  <testcase name="testDraw" classname="testDraw()" time="0"/>
  <testcase name="testDraw" classname="testDraw()" time="0"/>
  <testcase name="testDraw" classname="testDraw()" time="0"/>
  <testcase name="testDraw" classname="testDraw()" time="0"/>
  <testcase name="testDraw" classname="testDraw()" time="0"/>
  <testcase name="testDraw" classname="testDraw()" time="0"/>
  <testcase name="testDraw" classname="testDraw()" time="0.001"/>
  <testcase name="testDraw" classname="testDraw()" time="0"/>
  <testcase name="testDraw" classname="testDraw()" time="0"/>
  <testcase name="testDraw" classname="testDraw()" time="0"/>
  <testcase name="testDraw" classname="testDraw()" time="0"/>
  <testcase name="testDraw" classname="testDraw()" time="0"/>
  <testcase name="testDraw" classname="testDraw()" time="0"/>
  <testcase name="testDraw" classname="testDraw()" time="0.001"/>
  <testcase name="testDraw" classname="testDraw()" time="0"/>
  <testcase name="testDraw" classname="testDraw()" time="0"/>
  <testcase name="testDraw" classname="testDraw()" time="0"/>
  <testcase name="testDraw" classname="testDraw()" time="0.001"/>
  <testcase name="testDraw" classname="testDraw()" time="0"/>
  <testcase name="testDraw" classname="testDraw()" time="0"/>
  <testcase name="testDraw" classname="testDraw()" time="0"/>
  <testcase name="testDraw" classname="testDraw()" time="0"/>
  <testcase name="testDraw" classname="testDraw()" time="0"/>
  <testcase name="testDraw" classname="testDraw()" time="0"/>
  <testcase name="testDraw" classname="testDraw()" time="0.001"/>
  <testcase name="testDraw" classname="testDraw()" time="0"/>
  <testcase name="testDraw" classname="testDraw()" time="0"/>
  <testcase name="testDraw" classname="testDraw()" time="0"/>
  <testcase name="testDraw" classname="testDraw()" time="0"/>
  <testcase name="testDraw" classname="testDraw()" time="0"/>
  <testcase name="testDraw" classname="testDraw()" time="0"/>
  <testcase name="testDraw" classname="testDraw()" time="0.001"/>
  <testcase name="testDraw" classname="testDraw()" time="0"/>
  <testcase name="testDraw" classname="testDraw()" time="0.001"/>
  <testcase name="testDraw" classname="testDraw()" time="0"/>
  <testcase name="testDraw" classname="testDraw()" time="0"/>
  <testcase name="testDraw" classname="testDraw()" time="0"/>
  <testcase name="testDraw" classname="testDraw()" time="0"/>
  <testcase name="testDraw" classname="testDraw()" time="0"/>
  <testcase name="testDraw" classname="testDraw()" time="0.001"/>
  <testcase name="testDraw" classname="testDraw()" time="0"/>
  <testcase name="testDraw" classname="testDraw()" time="0"/>
  <testcase name="testDraw" classname="testDraw()" time="0"/>
  <testcase name="testDraw" classname="testDraw()" time="0"/>
  <testcase name="testDraw" classname="testDraw()" time="0"/>
  <testcase name="testDraw" classname="testDraw()" time="0"/>
  <testcase name="testDraw" classname="testDraw()" time="0"/>
  <testcase name="testDraw" classname="testDraw()" time="0"/>
  <testcase name="testDraw" classname="testDraw()" time="0"/>
  <testcase name="testDraw" classname="testDraw()" time="0"/>
  <testcase name="testDraw" classname="testDraw()" time="0"/>
  <testcase name="testDraw" classname="testDraw()" time="0"/>
  <testcase name="testDraw" classname="testDraw()" time="0"/>
  <testcase name="testDraw" classname="testDraw()" time="0"/>
  <testcase name="testDraw" classname="testDraw()" time="0.001"/>
  <testcase name="testDraw" classname="testDraw()" time="0"/>
  <testcase name="testDraw" classname="testDraw()" time="0"/>
  <testcase name="testDraw" classname="testDraw()" time="0.001"/>
  <testcase name="testDraw" classname="testDraw()" time="0"/>
  <testcase name="testDraw" classname="testDraw()" time="0"/>
  <testcase name="testDraw" classname="testDraw()" time="0"/>
  <testcase name="testDraw" classname="testDraw()" time="0"/>
  <testcase name="testDraw" classname="testDraw()" time="0"/>
  <testcase name="testDraw" classname="testDraw()" time="0"/>
  <testcase name="testDraw" classname="testDraw()" time="0"/>
  <testcase name="testDraw" classname="testDraw()" time="0"/>
  <testcase name="testDraw" classname="testDraw()" time="0"/>
  <testcase name="testDraw" classname="testDraw()" time="0.001"/>
  <testcase name="testDraw" classname="testDraw()" time="0"/>
  <testcase name="testDraw" classname="testDraw()" time="0"/>
  <testcase name="testDraw" classname="testDraw()" time="0.001"/>
  <testcase name="testDraw" classname="testDraw()" time="0"/>
  <testcase name="testDraw" classname="testDraw()" time="0"/>
  <testcase name="testDraw" classname="testDraw()" time="0"/>
  <testcase name="testDraw" classname="testDraw()" time="0"/>
  <testcase name="testDraw" classname="testDraw()" time="0"/>
  <testcase name="testDraw" classname="testDraw()" time="0"/>
  <testcase name="testDraw" classname="testDraw()" time="0.001"/>
  <testcase name="testDraw" classname="testDraw()" time="0"/>
  <testcase name="testDraw" classname="testDraw()" time="0"/>
  <testcase name="testDraw" classname="testDraw()" time="0"/>
  <testcase name="testDraw" classname="testDraw()" time="0"/>
  <testcase name="testDraw" classname="testDraw()" time="0"/>
  <testcase name="testDraw" classname="testDraw()" time="0"/>
  <testcase name="testDraw" classname="testDraw()" time="0"/>
  <testcase name="testDraw" classname="testDraw()" time="0"/>
  <testcase name="testDraw" classname="testDraw()" time="0"/>
  <testcase name="testDraw" classname="testDraw()" time="0.001"/>
  <testcase name="testDraw" classname="testDraw()" time="0"/>
  <testcase name="testDraw" classname="testDraw()" time="0"/>
  <testcase name="testDraw" classname="testDraw()" time="0"/>
  <testcase name="testDraw" classname="testDraw()" time="0"/>
  <testcase name="testDraw" classname="testDraw()" time="0"/>
  <testcase name="testDraw" classname="testDraw()" time="0"/>
  <testcase name="testDraw" classname="testDraw()" time="0"/>
  <testcase name="testDraw" classname="testDraw()" time="0"/>
  <testcase name="testDraw" classname="testDraw()" time="0"/>
  <testcase name="testDraw" classname="testDraw()" time="0"/>
  <testcase name="testDraw" classname="testDraw()" time="0"/>
  <testcase name="testDraw" classname="testDraw()" time="0"/>
  <testcase name="testDraw" classname="testDraw()" time="0"/>
  <testcase name="testDraw" classname="testDraw()" time="0"/>
  <testcase name="testDraw" classname="testDraw()" time="0"/>
  <testcase name="testDraw" classname="testDraw()" time="0"/>
  <testcase name="testDraw" classname="testDraw()" time="0"/>
  <testcase name="testDraw" classname="testDraw()" time="0"/>
  <testcase name="testDraw" classname="testDraw()" time="0"/>
  <testcase name="testDraw" classname="testDraw()" time="0"/>
  <testcase name="testDraw" classname="testDraw()" time="0"/>
  <testcase name="testDraw" classname="testDraw()" time="0"/>
  <testcase name="testDraw" classname="testDraw()" time="0"/>
  <testcase name="testDraw" classname="testDraw()" time="0"/>
  <testcase name="testDraw" classname="testDraw()" time="0.001"/>
  <testcase name="testDraw" classname="testDraw()" time="0"/>
  <testcase name="testDraw" classname="testDraw()" time="0"/>
  <testcase name="testDraw" classname="testDraw()" time="0"/>
  <testcase name="testDraw" classname="testDraw()" time="0"/>
  <testcase name="testDraw" classname="testDraw()" time="0"/>
  <testcase name="testDraw" classname="testDraw()" time="0"/>
  <testcase name="testDraw" classname="testDraw()" time="0"/>
  <testcase name="testDraw" classname="testDraw()" time="0"/>
  <testcase name="testDraw" classname="testDraw()" time="0"/>
  <testcase name="testDraw" classname="testDraw()" time="0"/>
  <testcase name="testDraw" classname="testDraw()" time="0"/>
  <testcase name="testDraw" classname="testDraw()" time="0"/>
  <testcase name="testDraw" classname="testDraw()" time="0"/>
  <testcase name="testDraw" classname="testDraw()" time="0.001"/>
  <testcase name="testDraw" classname="testDraw()" time="0"/>
  <testcase name="testDraw" classname="testDraw()" time="0"/>
  <testcase name="testDraw" classname="testDraw()" time="0"/>
  <testcase name="testDraw" classname="testDraw()" time="0"/>
  <testcase name="testDraw" classname="testDraw()" time="0"/>
  <testcase name="testDraw" classname="testDraw()" time="0"/>
  <testcase name="testDraw" classname="testDraw()" time="0.001"/>
  <testcase name="testDraw" classname="testDraw()" time="0"/>
  <testcase name="testDraw" classname="testDraw()" time="0"/>
  <testcase name="testDraw" classname="testDraw()" time="0"/>
  <testcase name="testDraw" classname="testDraw()" time="0"/>
  <testcase name="testDraw" classname="testDraw()" time="0"/>
  <testcase name="testDraw" classname="testDraw()" time="0"/>
  <testcase name="testDraw" classname="testDraw()" time="0"/>
  <testcase name="testDraw" classname="testDraw()" time="0.001"/>
  <testcase name="testDraw" classname="testDraw()" time="0"/>
  <testcase name="testDraw" classname="testDraw()" time="0"/>
  <testcase name="testDraw" classname="testDraw()" time="0"/>
  <testcase name="testDraw" classname="testDraw()" time="0"/>
  <testcase name="testDraw" classname="testDraw()" time="0"/>
  <testcase name="testDraw" classname="testDraw()" time="0"/>
  <testcase name="testDraw" classname="testDraw()" time="0"/>
  <testcase name="testDraw" classname="testDraw()" time="0"/>
  <testcase name="testDraw" classname="testDraw()" time="0"/>
  <testcase name="testDraw" classname="testDraw()" time="0"/>
  <testcase name="testDraw" classname="testDraw()" time="0"/>
  <testcase name="testDraw" classname="testDraw()" time="0"/>
  <testcase name="testDraw" classname="testDraw()" time="0"/>
  <testcase name="testDraw" classname="testDraw()" time="0"/>
  <testcase name="testDraw" classname="testDraw()" time="0"/>
  <testcase name="testDraw" classname="testDraw()" time="0"/>
  <testcase name="testDraw" classname="testDraw()" time="0"/>
  <testcase name="testDraw" classname="testDraw()" time="0"/>
  <testcase name="testDraw" classname="testDraw()" time="0"/>
  <testcase name="testDraw" classname="testDraw()" time="0"/>
  <testcase name="testDraw" classname="testDraw()" time="0"/>
  <testcase name="testDraw" classname="testDraw()" time="0"/>
  <testcase name="testDraw" classname="testDraw()" time="0"/>
  <testcase name="testDraw" classname="testDraw()" time="0"/>
  <testcase name="testDraw" classname="testDraw()" time="0"/>
  <testcase name="testDraw" classname="testDraw()" time="0.001"/>
  <testcase name="testDraw" classname="testDraw()" time="0"/>
  <testcase name="testDraw" classname="testDraw()" time="0"/>
  <testcase name="testDraw" classname="testDraw()" time="0"/>
  <testcase name="testDraw" classname="testDraw()" time="0"/>
  <testcase name="testDraw" classname="testDraw()" time="0"/>
  <testcase name="testDraw" classname="testDraw()" time="0"/>
  <testcase name="testDraw" classname="testDraw()" time="0"/>
  <testcase name="testDraw" classname="testDraw()" time="0.001"/>
  <testcase name="testDraw" classname="testDraw()" time="0"/>
  <testcase name="testDraw" classname="testDraw()" time="0"/>
  <testcase name="testDraw" classname="testDraw()" time="0"/>
  <testcase name="testDraw" classname="testDraw()" time="0"/>
  <testcase name="testDraw" classname="testDraw()" time="0"/>
  <testcase name="testDraw" classname="testDraw()" time="0"/>
  <testcase name="testDraw" classname="testDraw()" time="0"/>
  <testcase name="testDraw" classname="testDraw()" time="0"/>
  <testcase name="testDraw" classname="testDraw()" time="0.001"/>
  <testcase name="testDraw" classname="testDraw()" time="0"/>
  <testcase name="testDraw" classname="testDraw()" time="0"/>
  <testcase name="testDraw" classname="testDraw()" time="0"/>
  <testcase name="testDraw" classname="testDraw()" time="0"/>
  <testcase name="testDraw" classname="testDraw()" time="0.001"/>
  <testcase name="testDraw" classname="testDraw()" time="0"/>
  <testcase name="testDraw" classname="testDraw()" time="0"/>
  <testcase name="testDraw" classname="testDraw()" time="0"/>
  <testcase name="testDraw" classname="testDraw()" time="0.001"/>
  <testcase name="testDraw" classname="testDraw()" time="0"/>
  <testcase name="testDraw" classname="testDraw()" time="0"/>
  <testcase name="testDraw" classname="testDraw()" time="0"/>
  <testcase name="testDraw" classname="testDraw()" time="0.001"/>
  <testcase name="testDraw" classname="testDraw()" time="0"/>
  <testcase name="testDraw" classname="testDraw()" time="0"/>
  <testcase name="testDraw" classname="testDraw()" time="0"/>
  <testcase name="testDraw" classname="testDraw()" time="0"/>
  <testcase name="testDraw" classname="testDraw()" time="0"/>
  <testcase name="testDraw" classname="testDraw()" time="0"/>
  <testcase name="testDraw" classname="testDraw()" time="0"/>
  <testcase name="testDraw" classname="testDraw()" time="0"/>
  <testcase name="testDraw" classname="testDraw()" time="0"/>
  <testcase name="testDraw" classname="testDraw()" time="0"/>
  <testcase name="testDraw" classname="testDraw()" time="0.001"/>
  <testcase name="testDraw" classname="testDraw()" time="0"/>
  <testcase name="testDraw" classname="testDraw()" time="0"/>
  <testcase name="testDraw" classname="testDraw()" time="0"/>
  <testcase name="testDraw" classname="testDraw()" time="0"/>
  <testcase name="testDraw" classname="testDraw()" time="0"/>
  <testcase name="testDraw" classname="testDraw()" time="0"/>
  <testcase name="testDraw" classname="testDraw()" time="0"/>
  <testcase name="testDraw" classname="testDraw()" time="0"/>
  <testcase name="testDraw" classname="testDraw()" time="0.001"/>
  <testcase name="testDraw" classname="testDraw()" time="0"/>
  <testcase name="testDraw" classname="testDraw()" time="0"/>
  <testcase name="testDraw" classname="testDraw()" time="0"/>
  <testcase name="testDraw" classname="testDraw()" time="0"/>
  <testcase name="testDraw" classname="testDraw()" time="0.001"/>
  <testcase name="testDraw" classname="testDraw()" time="0"/>
  <testcase name="testDraw" classname="testDraw()" time="0"/>
  <testcase name="testDraw" classname="testDraw()" time="0"/>
  <testcase name="testDraw" classname="testDraw()" time="0"/>
  <testcase name="testDraw" classname="testDraw()" time="0"/>
  <testcase name="testDraw" classname="testDraw()" time="0"/>
  <testcase name="testDraw" classname="testDraw()" time="0"/>
  <testcase name="testDraw" classname="testDraw()" time="0"/>
  <testcase name="testDraw" classname="testDraw()" time="0"/>
  <testcase name="testDraw" classname="testDraw()" time="0"/>
  <testcase name="testDraw" classname="testDraw()" time="0"/>
  <testcase name="testDraw" classname="testDraw()" time="0"/>
  <testcase name="testDraw" classname="testDraw()" time="0"/>
  <testcase name="testDraw" classname="testDraw()" time="0"/>
  <testcase name="testDraw" classname="testDraw()" time="0"/>
  <testcase name="testDraw" classname="testDraw()" time="0"/>
  <testcase name="testDraw" classname="testDraw()" time="0"/>
  <testcase name="testDraw" classname="testDraw()" time="0"/>
  <testcase name="testDraw" classname="testDraw()" time="0"/>
  <testcase name="testDraw" classname="testDraw()" time="0"/>
  <testcase name="testDraw" classname="testDraw()" time="0"/>
  <testcase name="testDraw" classname="testDraw()" time="0"/>
  <testcase name="testDraw" classname="testDraw()" time="0"/>
  <testcase name="testDraw" classname="testDraw()" time="0"/>
  <testcase name="testDraw" classname="testDraw()" time="0"/>
  <testcase name="testDraw" classname="testDraw()" time="0"/>
  <testcase name="testDraw" classname="testDraw()" time="0"/>
  <testcase name="testDraw" classname="testDraw()" time="0"/>
  <testcase name="testDraw" classname="testDraw()" time="0"/>
  <testcase name="testDraw" classname="testDraw()" time="0"/>
  <testcase name="testDraw" classname="testDraw()" time="0"/>
  <testcase name="testDraw" classname="testDraw()" time="0"/>
  <testcase name="testDraw" classname="testDraw()" time="0"/>
  <testcase name="testDraw" classname="testDraw()" time="0"/>
  <testcase name="testDraw" classname="testDraw()" time="0"/>
  <testcase name="testDraw" classname="testDraw()" time="0"/>
  <testcase name="testDraw" classname="testDraw()" time="0"/>
  <testcase name="testDraw" classname="testDraw()" time="0"/>
  <testcase name="testDraw" classname="testDraw()" time="0"/>
  <testcase name="testDraw" classname="testDraw()" time="0"/>
  <testcase name="testDraw" classname="testDraw()" time="0"/>
  <testcase name="testDraw" classname="testDraw()" time="0"/>
  <testcase name="testDraw" classname="testDraw()" time="0"/>
  <testcase name="testDraw" classname="testDraw()" time="0"/>
  <testcase name="testDraw" classname="testDraw()" time="0.001"/>
  <testcase name="testDraw" classname="testDraw()" time="0"/>
  <testcase name="testDraw" classname="testDraw()" time="0"/>
  <testcase name="testDraw" classname="testDraw()" time="0"/>
  <testcase name="testDraw" classname="testDraw()" time="0"/>
  <testcase name="testDraw" classname="testDraw()" time="0"/>
  <testcase name="testDraw" classname="testDraw()" time="0"/>
  <testcase name="testDraw" classname="testDraw()" time="0"/>
  <testcase name="testDraw" classname="testDraw()" time="0"/>
  <testcase name="testDraw" classname="testDraw()" time="0"/>
  <testcase name="testDraw" classname="testDraw()" time="0"/>
  <testcase name="testDraw" classname="testDraw()" time="0"/>
  <testcase name="testDraw" classname="testDraw()" time="0"/>
  <testcase name="testDraw" classname="testDraw()" time="0"/>
  <testcase name="testDraw" classname="testDraw()" time="0"/>
  <testcase name="testDraw" classname="testDraw()" time="0"/>
  <testcase name="testDraw" classname="testDraw()" time="0"/>
  <testcase name="testDraw" classname="testDraw()" time="0"/>
  <testcase name="testDraw" classname="testDraw()" time="0"/>
  <testcase name="testDraw" classname="testDraw()" time="0"/>
  <testcase name="testDraw" classname="testDraw()" time="0"/>
  <testcase name="testDraw" classname="testDraw()" time="0"/>
  <testcase name="testDraw" classname="testDraw()" time="0"/>
  <testcase name="testDraw" classname="testDraw()" time="0"/>
  <testcase name="testDraw" classname="testDraw()" time="0"/>
  <testcase name="testDraw" classname="testDraw()" time="0"/>
  <testcase name="testDraw" classname="testDraw()" time="0"/>
  <testcase name="testDraw" classname="testDraw()" time="0"/>
  <testcase name="testDraw" classname="testDraw()" time="0"/>
  <testcase name="testDraw" classname="testDraw()" time="0"/>
  <testcase name="testDraw" classname="testDraw()" time="0"/>
  <testcase name="testDraw" classname="testDraw()" time="0"/>
  <testcase name="testDraw" classname="testDraw()" time="0"/>
  <testcase name="testDraw" classname="testDraw()" time="0"/>
  <testcase name="testDraw" classname="testDraw()" time="0"/>
  <testcase name="testDraw" classname="testDraw()" time="0"/>
  <testcase name="testDraw" classname="testDraw()" time="0"/>
  <testcase name="testDraw" classname="testDraw()" time="0"/>
  <testcase name="testDraw" classname="testDraw()" time="0"/>
  <testcase name="testDraw" classname="testDraw()" time="0"/>
  <testcase name="testDraw" classname="testDraw()" time="0"/>
  <testcase name="testDraw" classname="testDraw()" time="0"/>
  <testcase name="testDraw" classname="testDraw()" time="0"/>
  <testcase name="testDraw" classname="testDraw()" time="0"/>
  <testcase name="testDraw" classname="testDraw()" time="0"/>
  <testcase name="testDraw" classname="testDraw()" time="0"/>
  <testcase name="testDraw" classname="testDraw()" time="0"/>
  <testcase name="testDraw" classname="testDraw()" time="0"/>
  <testcase name="testDraw" classname="testDraw()" time="0"/>
  <testcase name="testDraw" classname="testDraw()" time="0"/>
  <testcase name="testDraw" classname="testDraw()" time="0"/>
  <testcase name="testDraw" classname="testDraw()" time="0"/>
  <testcase name="testDraw" classname="testDraw()" time="0"/>
  <testcase name="testDraw" classname="testDraw()" time="0"/>
  <testcase name="testDraw" classname="testDraw()" time="0"/>
  <testcase name="testDraw" classname="testDraw()" time="0"/>
  <testcase name="testDraw" classname="testDraw()" time="0"/>
  <testcase name="testDraw" classname="testDraw()" time="0"/>
  <testcase name="testDraw" classname="testDraw()" time="0"/>
  <testcase name="testDraw" classname="testDraw()" time="0"/>
  <testcase name="testDraw" classname="testDraw()" time="0"/>
  <testcase name="testDraw" classname="testDraw()" time="0"/>
  <testcase name="testDraw" classname="testDraw()" time="0"/>
  <testcase name="testDraw" classname="testDraw()" time="0"/>
  <testcase name="testDraw" classname="testDraw()" time="0"/>
  <testcase name="testDraw" classname="testDraw()" time="0"/>
  <testcase name="testDraw" classname="testDraw()" time="0"/>
  <testcase name="testDraw" classname="testDraw()" time="0"/>
  <testcase name="testDraw" classname="testDraw()" time="0.001"/>
  <testcase name="testDraw" classname="testDraw()" time="0"/>
  <testcase name="testDraw" classname="testDraw()" time="0"/>
  <testcase name="testDraw" classname="testDraw()" time="0"/>
  <testcase name="testDraw" classname="testDraw()" time="0"/>
  <testcase name="testDraw" classname="testDraw()" time="0"/>
  <testcase name="testDraw" classname="testDraw()" time="0"/>
  <testcase name="testDraw" classname="testDraw()" time="0"/>
  <testcase name="testDraw" classname="testDraw()" time="0"/>
  <testcase name="testDraw" classname="testDraw()" time="0"/>
  <testcase name="testDraw" classname="testDraw()" time="0"/>
  <testcase name="testDraw" classname="testDraw()" time="0"/>
  <testcase name="testDraw" classname="testDraw()" time="0"/>
  <testcase name="testDraw" classname="testDraw()" time="0"/>
  <testcase name="testDraw" classname="testDraw()" time="0"/>
  <testcase name="testDraw" classname="testDraw()" time="0"/>
  <testcase name="testDraw" classname="testDraw()" time="0"/>
  <testcase name="testDraw" classname="testDraw()" time="0"/>
  <testcase name="testDraw" classname="testDraw()" time="0"/>
  <testcase name="testDraw" classname="testDraw()" time="0"/>
  <testcase name="testDraw" classname="testDraw()" time="0"/>
  <testcase name="testDraw" classname="testDraw()" time="0.001"/>
  <testcase name="testDraw" classname="testDraw()" time="0"/>
  <testcase name="testDraw" classname="testDraw()" time="0"/>
  <testcase name="testDraw" classname="testDraw()" time="0"/>
  <testcase name="testDraw" classname="testDraw()" time="0"/>
  <testcase name="testDraw" classname="testDraw()" time="0"/>
  <testcase name="testDraw" classname="testDraw()" time="0"/>
  <testcase name="testDraw" classname="testDraw()" time="0.001"/>
  <testcase name="testDraw" classname="testDraw()" time="0"/>
  <testcase name="testDraw" classname="testDraw()" time="0"/>
  <testcase name="testDraw" classname="testDraw()" time="0"/>
  <testcase name="testDraw" classname="testDraw()" time="0"/>
  <testcase name="testDraw" classname="testDraw()" time="0"/>
  <testcase name="testDraw" classname="testDraw()" time="0"/>
  <testcase name="testDraw" classname="testDraw()" time="0"/>
  <testcase name="testDraw" classname="testDraw()" time="0"/>
  <testcase name="testDraw" classname="testDraw()" time="0"/>
  <testcase name="testDraw" classname="testDraw()" time="0"/>
  <testcase name="testDraw" classname="testDraw()" time="0"/>
  <testcase name="testDraw" classname="testDraw()" time="0"/>
  <testcase name="testDraw" classname="testDraw()" time="0"/>
  <testcase name="testDraw" classname="testDraw()" time="0"/>
  <testcase name="testDraw" classname="testDraw()" time="0.001"/>
  <testcase name="testDraw" classname="testDraw()" time="0"/>
  <testcase name="testDraw" classname="testDraw()" time="0"/>
  <testcase name="testDraw" classname="testDraw()" time="0"/>
  <testcase name="testDraw" classname="testDraw()" time="0.001"/>
  <testcase name="testDraw" classname="testDraw()" time="0"/>
  <testcase name="testDraw" classname="testDraw()" time="0"/>
  <testcase name="testDraw" classname="testDraw()" time="0"/>
  <testcase name="testDraw" classname="testDraw()" time="0.001"/>
  <testcase name="testDraw" classname="testDraw()" time="0"/>
  <testcase name="testDraw" classname="testDraw()" time="0"/>
  <testcase name="testDraw" classname="testDraw()" time="0"/>
  <testcase name="testDraw" classname="testDraw()" time="0"/>
  <testcase name="testDraw" classname="testDraw()" time="0"/>
  <testcase name="testDraw" classname="testDraw()" time="0"/>
  <testcase name="testDraw" classname="testDraw()" time="0"/>
  <testcase name="testDraw" classname="testDraw()" time="0"/>
  <testcase name="testDraw" classname="testDraw()" time="0"/>
  <testcase name="testDraw" classname="testDraw()" time="0"/>
  <testcase name="testDraw" classname="testDraw()" time="0"/>
  <testcase name="testDraw" classname="testDraw()" time="0"/>
  <testcase name="testDraw" classname="testDraw()" time="0"/>
  <testcase name="testDraw" classname="testDraw()" time="0"/>
  <testcase name="testDraw" classname="testDraw()" time="0"/>
  <testcase name="testDraw" classname="testDraw()" time="0"/>
  <testcase name="testDraw" classname="testDraw()" time="0"/>
  <testcase name="testDraw" classname="testDraw()" time="0"/>
  <testcase name="testDraw" classname="testDraw()" time="0"/>
  <testcase name="testDraw" classname="testDraw()" time="0"/>
  <testcase name="testDraw" classname="testDraw()" time="0"/>
  <testcase name="testDraw" classname="testDraw()" time="0"/>
  <testcase name="testDraw" classname="testDraw()" time="0"/>
  <testcase name="testDraw" classname="testDraw()" time="0"/>
  <testcase name="testDraw" classname="testDraw()" time="0"/>
  <testcase name="testDraw" classname="testDraw()" time="0"/>
  <testcase name="testDraw" classname="testDraw()" time="0"/>
  <testcase name="testDraw" classname="testDraw()" time="0"/>
  <testcase name="testDraw" classname="testDraw()" time="0"/>
  <testcase name="testDraw" classname="testDraw()" time="0"/>
  <testcase name="testDraw" classname="testDraw()" time="0"/>
  <testcase name="testDraw" classname="testDraw()" time="0"/>
  <testcase name="testDraw" classname="testDraw()" time="0"/>
  <testcase name="testDraw" classname="testDraw()" time="0"/>
  <testcase name="testDraw" classname="testDraw()" time="0"/>
  <testcase name="testDraw" classname="testDraw()" time="0"/>
  <testcase name="testDraw" classname="testDraw()" time="0"/>
  <testcase name="testDraw" classname="testDraw()" time="0"/>
  <testcase name="testDraw" classname="testDraw()" time="0"/>
  <testcase name="testDraw" classname="testDraw()" time="0"/>
  <testcase name="testDraw" classname="testDraw()" time="0"/>
  <testcase name="testDraw" classname="testDraw()" time="0"/>
  <testcase name="testDraw" classname="testDraw()" time="0"/>
  <testcase name="testDraw" classname="testDraw()" time="0"/>
  <testcase name="testDraw" classname="testDraw()" time="0.001"/>
  <testcase name="testDraw" classname="testDraw()" time="0"/>
  <testcase name="testDraw" classname="testDraw()" time="0"/>
  <testcase name="testDraw" classname="testDraw()" time="0"/>
  <testcase name="testDraw" classname="testDraw()" time="0"/>
  <testcase name="testDraw" classname="testDraw()" time="0"/>
  <testcase name="testDraw" classname="testDraw()" time="0"/>
  <testcase name="testDraw" classname="testDraw()" time="0"/>
  <testcase name="testDraw" classname="testDraw()" time="0"/>
  <testcase name="testDraw" classname="testDraw()" time="0"/>
  <testcase name="testDraw" classname="testDraw()" time="0"/>
  <testcase name="testDraw" classname="testDraw()" time="0"/>
  <testcase name="testDraw" classname="testDraw()" time="0"/>
  <testcase name="testDraw" classname="testDraw()" time="0.001"/>
  <testcase name="testDraw" classname="testDraw()" time="0"/>
  <testcase name="testDraw" classname="testDraw()" time="0"/>
  <testcase name="testDraw" classname="testDraw()" time="0"/>
  <testcase name="testDraw" classname="testDraw()" time="0"/>
  <testcase name="testDraw" classname="testDraw()" time="0"/>
  <testcase name="testDraw" classname="testDraw()" time="0"/>
  <testcase name="testDraw" classname="testDraw()" time="0"/>
  <testcase name="testDraw" classname="testDraw()" time="0"/>
  <testcase name="testDraw" classname="testDraw()" time="0.001"/>
  <testcase name="testDraw" classname="testDraw()" time="0"/>
  <testcase name="testDraw" classname="testDraw()" time="0"/>
  <testcase name="testDraw" classname="testDraw()" time="0"/>
  <testcase name="testDraw" classname="testDraw()" time="0.001"/>
  <testcase name="testDraw" classname="testDraw()" time="0"/>
  <testcase name="testDraw" classname="testDraw()" time="0"/>
  <testcase name="testDraw" classname="testDraw()" time="0"/>
  <testcase name="testDraw" classname="testDraw()" time="0"/>
  <testcase name="testDraw" classname="testDraw()" time="0"/>
  <testcase name="testDraw" classname="testDraw()" time="0"/>
  <testcase name="testDraw" classname="testDraw()" time="0"/>
  <testcase name="testDraw" classname="testDraw()" time="0"/>
  <testcase name="testDraw" classname="testDraw()" time="0.001"/>
  <testcase name="testDraw" classname="testDraw()" time="0"/>
  <testcase name="testDraw" classname="testDraw()" time="0"/>
  <testcase name="testDraw" classname="testDraw()" time="0"/>
  <testcase name="testDraw" classname="testDraw()" time="0"/>
  <testcase name="testDraw" classname="testDraw()" time="0"/>
  <testcase name="testDraw" classname="testDraw()" time="0"/>
  <testcase name="testDraw" classname="testDraw()" time="0"/>
  <testcase name="testDraw" classname="testDraw()" time="0"/>
  <testcase name="testDraw" classname="testDraw()" time="0"/>
  <testcase name="testDraw" classname="testDraw()" time="0.001"/>
  <testcase name="testDraw" classname="testDraw()" time="0"/>
  <testcase name="testDraw" classname="testDraw()" time="0"/>
  <testcase name="testDraw" classname="testDraw()" time="0"/>
  <testcase name="testDraw" classname="testDraw()" time="0"/>
  <testcase name="testDraw" classname="testDraw()" time="0"/>
  <testcase name="testDraw" classname="testDraw()" time="0"/>
  <testcase name="testDraw" classname="testDraw()" time="0"/>
  <testcase name="testDraw" classname="testDraw()" time="0"/>
  <testcase name="testShuffle52" classname="BlackjackTest" time="0"/>
  <testcase name="testShuffleDraw" classname="BlackjackTest" time="0"/>
  <testcase name="testDoublesShuffle" classname="BlackjackTest" time="0.001"/>
  <testcase name="testDoubles" classname="BlackjackTest" time="0"/>
  <testcase name="testShuffle" classname="BlackjackTest" time="0.002"/>
</testsuite>